Labo 10
…
Mantener solo alta correlacin

res.cor <- mtcars [, c(1, 3:6)] %>%  # (1)
  t() %>% correlate() %>%            # (2)
  shave(upper = TRUE) %>%            # (3)
  stretch(na.rm = TRUE) %>%          # (4)
  filter(r >= 0.998)                 # (5)

## 
## Correlation method: 'pearson'
## Missing treated using: 'pairwise.complete.obs'

res.cor

## # A tibble: 59 x 3
##    x             y                 r
##    <chr>         <chr>         <dbl>
##  1 Mazda RX4     Mazda RX4 Wag 1.000
##  2 Mazda RX4     Merc 230      1.000
##  3 Mazda RX4     Merc 280      0.999
##  4 Mazda RX4     Merc 280C     0.999
##  5 Mazda RX4     Merc 450SL    0.998
##  6 Mazda RX4 Wag Merc 230      1.000
##  7 Mazda RX4 Wag Merc 280      0.999
##  8 Mazda RX4 Wag Merc 280C     0.999
##  9 Mazda RX4 Wag Merc 450SL    0.998
## 10 Datsun 710    Toyota Corona 0.999
## # ... with 49 more rows
…
